<!-- Generator: Adobe Illustrator 22.0.0, SVG Export Plug-In  -->
<svg version="1.1"
	 xmlns="http://www.w3.org/2000/svg" xmlns:xlink="http://www.w3.org/1999/xlink" xmlns:a="http://ns.adobe.com/AdobeSVGViewerExtensions/3.0/"
	 x="0px" y="0px" width="19.1px" height="23.1px" viewBox="0 0 19.1 23.1" style="enable-background:new 0 0 19.1 23.1;"
	 xml:space="preserve">
<style type="text/css">
	.st0{fill:#333333;}
</style>
<defs>
</defs>
<g>
	<g>
		<path class="st0" d="M19.1,18.8C19.1,18.7,19.1,18.7,19.1,18.8l-3.6-14V2.2c0-1.2-1-2.2-2.2-2.2H5.8C4.6,0,3.6,1,3.6,2.2v2.5
			L0,18.7c0,0,0,0,0,0c0,0,0,0,0,0.1v3.9c0,0.2,0.2,0.4,0.4,0.4c0.2,0,0.4-0.2,0.4-0.4v-3.5h17.6v3.5c0,0.2,0.2,0.4,0.4,0.4
			c0.2,0,0.4-0.2,0.4-0.4L19.1,18.8C19.1,18.8,19.1,18.8,19.1,18.8z M4.3,2.2c0-0.8,0.7-1.5,1.5-1.5h7.5c0.8,0,1.5,0.7,1.5,1.5v2.2
			h-1.2c-0.2-1.1-1-2-4-2c-2.9,0-3.8,0.9-4,2H4.3V2.2z M12.8,5.1c0,0.2,0,0.3-0.1,0.4c-0.4,0.4-1.8,0.4-2.8,0.4H9.5H9.2
			c-1.1,0-2.4,0-2.8-0.4C6.3,5.4,6.2,5.3,6.2,5.1c0-0.9,0-1.9,3.3-1.9C12.8,3.2,12.8,4.3,12.8,5.1z M4.2,5.2h1.3
			c0,0.3,0.1,0.6,0.4,0.9c0.7,0.7,2,0.6,3.3,0.6h0.3h0.3c0.1,0,0.2,0,0.4,0c1.2,0,2.4-0.1,3-0.6c0.2-0.2,0.4-0.5,0.4-0.9h1.3
			l0.8,3.2H3.4L4.2,5.2z M0.8,18.4l2.4-9.3h12.6l2.4,9.3H0.8z"/>
	</g>
	<g>
		<path class="st0" d="M17,20.5H2.1c-0.2,0-0.4,0.2-0.4,0.4c0,0.2,0.2,0.4,0.4,0.4H17c0.2,0,0.4-0.2,0.4-0.4
			C17.3,20.6,17.2,20.5,17,20.5z"/>
	</g>
</g>
</svg>
