<!-- Generator: Adobe Illustrator 22.0.0, SVG Export Plug-In  -->
<svg version="1.1"
	 xmlns="http://www.w3.org/2000/svg" xmlns:xlink="http://www.w3.org/1999/xlink" xmlns:a="http://ns.adobe.com/AdobeSVGViewerExtensions/3.0/"
	 x="0px" y="0px" width="23.1px" height="22.9px" viewBox="0 0 23.1 22.9" style="enable-background:new 0 0 23.1 22.9;"
	 xml:space="preserve">
<style type="text/css">
	.st0{fill:#333333;}
</style>
<defs>
</defs>
<g>
	<g>
		<path class="st0" d="M21.7,12.5h-0.4v-10c0-1.4-1.1-2.5-2.4-2.5H14c-1.2,0-2.3,0.9-2.4,2.1c-1.2,0.1-2.2,1.1-2.4,2.3
			c0,0.2,0,0.4,0.2,0.6c0.1,0.2,0.3,0.2,0.5,0.2h4.1c0.2,0,0.4-0.1,0.5-0.2c0.1-0.2,0.2-0.4,0.2-0.6c-0.2-1.2-1.2-2.2-2.4-2.3
			c0.2-0.8,0.9-1.4,1.7-1.4h4.9c1,0,1.7,0.8,1.7,1.8v10H1.4c-0.8,0-1.4,0.6-1.4,1.4c0,0.7,0.5,1.3,1.1,1.4l1.8,5.3
			c0.2,0.6,0.7,0.9,1.3,0.9h0.2v1c0,0.2,0.2,0.4,0.3,0.4c0.2,0,0.3-0.2,0.3-0.4v-1h9.8v1c0,0.2,0.2,0.4,0.4,0.4
			c0.2,0,0.3-0.2,0.3-0.4v-1h0.3c0.7,0,1.3-0.3,1.7-0.9l3.9-5.3h0.2c0.8,0,1.4-0.6,1.4-1.4C23.1,13.1,22.5,12.5,21.7,12.5z
			 M13.9,4.5H9.8c0.2-1,1-1.8,2.1-1.8C12.9,2.8,13.8,3.5,13.9,4.5z M17,20.2c-0.3,0.4-0.7,0.6-1.1,0.6H4.3c-0.3,0-0.6-0.2-0.7-0.5
			l-1.7-5h18.8L17,20.2z M21.7,14.6h-0.4H1.4l0,0c-0.4,0-0.7-0.3-0.7-0.7c0-0.4,0.3-0.7,0.7-0.7h20.3c0.4,0,0.7,0.3,0.7,0.7
			C22.4,14.3,22.1,14.6,21.7,14.6z"/>
	</g>
	<g>
		<path class="st0" d="M11.9,7.4c0.2,0,0.4-0.2,0.4-0.4V6.7c0-0.2-0.2-0.3-0.4-0.3c-0.2,0-0.3,0.2-0.3,0.3v0.4
			C11.5,7.3,11.7,7.4,11.9,7.4z"/>
	</g>
	<g>
		<path class="st0" d="M11.5,9.5c0,0.2,0.2,0.4,0.3,0.4c0.2,0,0.4-0.2,0.4-0.4V8.7c0-0.2-0.2-0.4-0.4-0.4c-0.2,0-0.3,0.2-0.3,0.4
			V9.5z"/>
	</g>
	<g>
		<path class="st0" d="M11.5,11.5c0,0.2,0.2,0.4,0.3,0.4c0.2,0,0.4-0.2,0.4-0.4v-0.4c0-0.2-0.2-0.3-0.4-0.3c-0.2,0-0.3,0.2-0.3,0.3
			V11.5z"/>
	</g>
	<g>
		<path class="st0" d="M10.1,7c0.2,0,0.4-0.2,0.4-0.4V6.3c0-0.2-0.2-0.4-0.4-0.4c-0.2,0-0.3,0.2-0.3,0.4v0.3C9.8,6.8,9.9,7,10.1,7z"
			/>
	</g>
	<g>
		<path class="st0" d="M9.8,9.1c0,0.2,0.2,0.4,0.3,0.4c0.2,0,0.4-0.2,0.4-0.4V8.3c0-0.2-0.2-0.4-0.4-0.4c-0.2,0-0.3,0.2-0.3,0.4V9.1
			z"/>
	</g>
	<g>
		<path class="st0" d="M9.8,11.1c0,0.2,0.2,0.4,0.3,0.4c0.2,0,0.4-0.2,0.4-0.4v-0.3c0-0.2-0.2-0.4-0.4-0.4c-0.2,0-0.3,0.2-0.3,0.4
			V11.1z"/>
	</g>
	<g>
		<path class="st0" d="M13.6,7C13.8,7,14,6.8,14,6.6V6.3c0-0.2-0.2-0.4-0.4-0.4c-0.2,0-0.3,0.2-0.3,0.4v0.3C13.3,6.8,13.4,7,13.6,7z
			"/>
	</g>
	<g>
		<path class="st0" d="M13.3,9.1c0,0.2,0.2,0.4,0.3,0.4c0.2,0,0.4-0.2,0.4-0.4V8.3c0-0.2-0.2-0.4-0.4-0.4c-0.2,0-0.3,0.2-0.3,0.4
			V9.1z"/>
	</g>
	<g>
		<path class="st0" d="M13.3,11.1c0,0.2,0.2,0.4,0.3,0.4c0.2,0,0.4-0.2,0.4-0.4v-0.3c0-0.2-0.2-0.4-0.4-0.4c-0.2,0-0.3,0.2-0.3,0.4
			V11.1z"/>
	</g>
</g>
</svg>
