<!-- Generator: Adobe Illustrator 22.0.0, SVG Export Plug-In  -->
<svg version="1.1"
	 xmlns="http://www.w3.org/2000/svg" xmlns:xlink="http://www.w3.org/1999/xlink" xmlns:a="http://ns.adobe.com/AdobeSVGViewerExtensions/3.0/"
	 x="0px" y="0px" width="26.7px" height="32.2px" viewBox="0 0 26.7 32.2" style="enable-background:new 0 0 26.7 32.2;"
	 xml:space="preserve">
<style type="text/css">
	.st0{fill:url(#SVGID_1_);}
	.st1{fill:url(#SVGID_2_);}
</style>
<defs>
</defs>
<linearGradient id="SVGID_1_" gradientUnits="userSpaceOnUse" x1="6.169" y1="28.8849" x2="15.8432" y2="8.009">
	<stop  offset="0" style="stop-color:#FFFF00"/>
	<stop  offset="1" style="stop-color:#00D5F5"/>
</linearGradient>
<path class="st0" d="M13.4,0C6,0,0,6,0,13.4c0,3.4,1.2,6.4,3.3,8.8l0,0l0.1,0.1c0.4,0.4,0.7,0.8,1.1,1.1l8.9,8.9l8.8-8.8
	c2.8-2.5,4.6-6.1,4.6-10.1C26.7,6,20.7,0,13.4,0z M13.4,19.1c-3.2,0-5.7-2.6-5.7-5.7c0-3.2,2.6-5.7,5.7-5.7c3.2,0,5.7,2.6,5.7,5.7
	C19.1,16.5,16.5,19.1,13.4,19.1z"/>
</svg>
