<?xml version="1.0" standalone="no"?>
<!DOCTYPE svg PUBLIC "-//W3C//DTD SVG 20010904//EN"
 "http://www.w3.org/TR/2001/REC-SVG-20010904/DTD/svg10.dtd">
<svg version="1.0" xmlns="http://www.w3.org/2000/svg"
 width="700.000000pt" height="700.000000pt" viewBox="0 0 700.000000 700.000000"
 preserveAspectRatio="xMidYMid meet">
<metadata>
Created by potrace 1.11, written by Peter Selinger 2001-2013
</metadata>
<g transform="translate(0.000000,700.000000) scale(0.100000,-0.100000)"
fill="#000000" stroke="none">
<path d="M3300 6993 c-497 -34 -932 -149 -1351 -358 -951 -473 -1633 -1344
-1863 -2375 -190 -856 -47 -1774 395 -2526 524 -892 1433 -1519 2439 -1683
232 -38 324 -45 575 -45 262 -1 371 8 611 49 681 117 1317 441 1817 925 606
586 957 1301 1059 2155 16 139 16 595 0 730 -85 697 -330 1294 -748 1820 -117
147 -431 459 -574 569 -567 437 -1196 679 -1914 736 -118 9 -337 11 -446 3z
m1105 -1753 c406 -25 655 -79 913 -200 365 -171 500 -498 353 -851 -84 -201
-278 -413 -516 -564 -79 -50 -270 -146 -370 -185 -282 -112 -588 -181 -985
-222 -245 -25 -944 -13 -1132 20 l-37 7 106 115 c59 63 135 145 169 182 l62
67 194 -10 c329 -16 759 18 1096 87 248 51 497 158 667 287 68 52 181 164 215
212 253 367 91 745 -390 913 -327 114 -808 109 -1388 -13 -253 -53 -602 -161
-792 -245 -190 -84 -495 -245 -607 -322 -24 -16 -43 -27 -43 -24 0 8 154 111
277 187 253 155 490 265 775 360 504 169 940 229 1433 199z m-3095 -2507 c167
-297 823 -585 1385 -610 344 -15 709 37 1181 169 l181 50 169 -137 c93 -75
170 -140 172 -144 3 -8 -302 -107 -463 -150 -478 -127 -862 -175 -1220 -151
-436 28 -771 123 -1021 290 -105 70 -237 207 -296 307 -56 94 -102 228 -117
336 -17 120 -16 121 29 40z"/>
</g>
</svg>
